ExtCustomerId,ExtBranchID,ExtAgentID,FirstName,LastName,MiddleName,DateofBirth,MobilePhone,Gender,FatherFirstName,FatherMiddleName,FatherLastName,MaritalStatus,LocalLanguage,Address-HouseNumber,Address-StreetName,Address-Area,Address-City/Village,Address-District,Address-State,Address-Country,Address-PinCode,KYCDocumentType,KYCDocumentID,KYCDocumentIssueDate,KYCDocumentValidUntil,KYCReferenceNumber,SpouseFirstName,SpouseMiddleName,SpouseLastName,CenterName,Address-STDCode
pwamfi001-91,pwa001-branch-01,vigh1107,Yes,Yes,No,Yes,9563636362,Yes,No,No,No,No,Yes,Yes,Yes,No,No,Yes,Yes,Yes,Yes,Yes,Yes,Yes,Yes,dsad,,,,,
Pwamfi001-92,pwa001-branch-01,vigh1107,sas,das,,saSAS,9561364833,m,defdew,,dewd,single,dasda,dsdadasd,dsadsad,dsadsad,dasdd,dasddas,dsadds,dasdasdd,213213213,voterCard,dasdsa,01-s10-1993,1/20/1992,dasd,dsad,ds,dsadsa,,
Pwamfi001-93,pwa001-branch-01,vigh1107,sas,das,,1/10/193,9561364833,m,defdew,,dewd,single,dasda,dsdadasd,dsadsad,dsadsad,dasdd,dasddas,IN-AN,dasdasdd,213213213,voterCard,dasdsa,,,dasd,dsad,ds,dsadsa,,
